{
  "name": "small-custom-m75",
  "G": "{\"class_name\": \"Sequential\", \"config\": {\"name\": \"sequential\", \"layers\": [{\"class_name\": \"InputLayer\", \"config\": {\"batch_input_shape\": [null, 1], \"dtype\": \"float32\", \"sparse\": false, \"ragged\": false, \"name\": \"dense_input\"}}, {\"class_name\": \"Dense\", \"config\": {\"name\": \"dense\", \"trainable\": true, \"dtype\": \"float32\", \"units\": 1, \"activation\": \"linear\", \"use_bias\": true, \"kernel_initializer\": {\"class_name\": \"GlorotUniform\", \"config\": {\"seed\": null}}, \"bias_initializer\": {\"class_name\": \"Zeros\", \"config\": {}}, \"kernel_regularizer\": null, \"bias_regularizer\": null, \"activity_regularizer\": null, \"kernel_constraint\": null, \"bias_constraint\": null}}]}, \"keras_version\": \"2.5.0\", \"backend\": \"tensorflow\"}",
  "P_U": {
    "fnc_name": "uniform",
    "params": {
      "low": 0,
      "high": 1
    },
    "dim": 1
  },
  "D": "{\"class_name\": \"Sequential\", \"config\": {\"name\": \"sequential_3\", \"layers\": [{\"class_name\": \"InputLayer\", \"config\": {\"batch_input_shape\": [null, 1], \"dtype\": \"float32\", \"sparse\": false, \"ragged\": false, \"name\": \"dense_10_input\"}}, {\"class_name\": \"Dense\", \"config\": {\"name\": \"dense_10\", \"trainable\": true, \"dtype\": \"float32\", \"units\": 25, \"activation\": \"relu\", \"use_bias\": true, \"kernel_initializer\": {\"class_name\": \"GlorotUniform\", \"config\": {\"seed\": null}}, \"bias_initializer\": {\"class_name\": \"Zeros\", \"config\": {}}, \"kernel_regularizer\": null, \"bias_regularizer\": null, \"activity_regularizer\": null, \"kernel_constraint\": null, \"bias_constraint\": null}}, {\"class_name\": \"Dense\", \"config\": {\"name\": \"dense_11\", \"trainable\": true, \"dtype\": \"float32\", \"units\": 1, \"activation\": \"sigmoid\", \"use_bias\": true, \"kernel_initializer\": {\"class_name\": \"GlorotUniform\", \"config\": {\"seed\": null}}, \"bias_initializer\": {\"class_name\": \"Zeros\", \"config\": {}}, \"kernel_regularizer\": null, \"bias_regularizer\": null, \"activity_regularizer\": null, \"kernel_constraint\": null, \"bias_constraint\": null}}]}, \"keras_version\": \"2.5.0\", \"backend\": \"tensorflow\"}",
  "m": 75,
  "P_X": {
    "fnc_name": "custom",
    "params": null,
    "dim": 1
  },
  "lambda": {
    "eta_g": 0.005,
    "eta_d": 0.005,
    "N": 5000,
    "K": 50,
    "B": 75
  }
}